%!PS-Adobe-3.0
%%BoundingBox: 38 24 574 768
%%Title: Enscript Output
%%For: Wesley Mackey
%%Creator: GNU enscript 1.6.4
%%CreationDate: Thu Oct 17 18:26:15 2013
%%Orientation: Portrait
%%Pages: (atend)
%%DocumentMedia: Letter 612 792 0 () ()
%%DocumentNeededResources: (atend)
%%EndComments
%%BeginProlog
%%BeginResource: procset Enscript-Prolog 1.6 4
%
% Procedures.
%

/_S {	% save current state
  /_s save def
} def
/_R {	% restore from saved state
  _s restore
} def

/S {	% showpage protecting gstate
  gsave
  showpage
  grestore
} bind def

/MF {	% fontname newfontname -> -	make a new encoded font
  /newfontname exch def
  /fontname exch def

  /fontdict fontname findfont def
  /newfont fontdict maxlength dict def

  fontdict {
    exch
    dup /FID eq {
      % skip FID pair
      pop pop
    } {
      % copy to the new font dictionary
      exch newfont 3 1 roll put
    } ifelse
  } forall

  newfont /FontName newfontname put

  % insert only valid encoding vectors
  encoding_vector length 256 eq {
    newfont /Encoding encoding_vector put
  } if

  newfontname newfont definefont pop
} def

/MF_PS { % fontname newfontname -> -	make a new font preserving its enc
  /newfontname exch def
  /fontname exch def

  /fontdict fontname findfont def
  /newfont fontdict maxlength dict def

  fontdict {
    exch
    dup /FID eq {
      % skip FID pair
      pop pop
    } {
      % copy to the new font dictionary
      exch newfont 3 1 roll put
    } ifelse
  } forall

  newfont /FontName newfontname put

  newfontname newfont definefont pop
} def

/SF { % fontname width height -> -	set a new font
  /height exch def
  /width exch def

  findfont
  [width 0 0 height 0 0] makefont setfont
} def

/SUF { % fontname width height -> -	set a new user font
  /height exch def
  /width exch def

  /F-gs-user-font MF
  /F-gs-user-font width height SF
} def

/SUF_PS { % fontname width height -> -	set a new user font preserving its enc
  /height exch def
  /width exch def

  /F-gs-user-font MF_PS
  /F-gs-user-font width height SF
} def

/M {moveto} bind def
/s {show} bind def

/Box {	% x y w h -> -			define box path
  /d_h exch def /d_w exch def /d_y exch def /d_x exch def
  d_x d_y  moveto
  d_w 0 rlineto
  0 d_h rlineto
  d_w neg 0 rlineto
  closepath
} def

/bgs {	% x y height blskip gray str -> -	show string with bg color
  /str exch def
  /gray exch def
  /blskip exch def
  /height exch def
  /y exch def
  /x exch def

  gsave
    x y blskip sub str stringwidth pop height Box
    gray setgray
    fill
  grestore
  x y M str s
} def

/bgcs { % x y height blskip red green blue str -> -  show string with bg color
  /str exch def
  /blue exch def
  /green exch def
  /red exch def
  /blskip exch def
  /height exch def
  /y exch def
  /x exch def

  gsave
    x y blskip sub str stringwidth pop height Box
    red green blue setrgbcolor
    fill
  grestore
  x y M str s
} def

% Highlight bars.
/highlight_bars {	% nlines lineheight output_y_margin gray -> -
  gsave
    setgray
    /ymarg exch def
    /lineheight exch def
    /nlines exch def

    % This 2 is just a magic number to sync highlight lines to text.
    0 d_header_y ymarg sub 2 sub translate

    /cw d_output_w cols div def
    /nrows d_output_h ymarg 2 mul sub lineheight div cvi def

    % for each column
    0 1 cols 1 sub {
      cw mul /xp exch def

      % for each rows
      0 1 nrows 1 sub {
        /rn exch def
        rn lineheight mul neg /yp exch def
        rn nlines idiv 2 mod 0 eq {
	  % Draw highlight bar.  4 is just a magic indentation.
	  xp 4 add yp cw 8 sub lineheight neg Box fill
	} if
      } for
    } for

  grestore
} def

% Line highlight bar.
/line_highlight {	% x y width height gray -> -
  gsave
    /gray exch def
    Box gray setgray fill
  grestore
} def

% Column separator lines.
/column_lines {
  gsave
    .1 setlinewidth
    0 d_footer_h translate
    /cw d_output_w cols div def
    1 1 cols 1 sub {
      cw mul 0 moveto
      0 d_output_h rlineto stroke
    } for
  grestore
} def

% Column borders.
/column_borders {
  gsave
    .1 setlinewidth
    0 d_footer_h moveto
    0 d_output_h rlineto
    d_output_w 0 rlineto
    0 d_output_h neg rlineto
    closepath stroke
  grestore
} def

% Do the actual underlay drawing
/draw_underlay {
  ul_style 0 eq {
    ul_str true charpath stroke
  } {
    ul_str show
  } ifelse
} def

% Underlay
/underlay {	% - -> -
  gsave
    0 d_page_h translate
    d_page_h neg d_page_w atan rotate

    ul_gray setgray
    ul_font setfont
    /dw d_page_h dup mul d_page_w dup mul add sqrt def
    ul_str stringwidth pop dw exch sub 2 div ul_h_ptsize -2 div moveto
    draw_underlay
  grestore
} def

/user_underlay {	% - -> -
  gsave
    ul_x ul_y translate
    ul_angle rotate
    ul_gray setgray
    ul_font setfont
    0 0 ul_h_ptsize 2 div sub moveto
    draw_underlay
  grestore
} def

% Page prefeed
/page_prefeed {		% bool -> -
  statusdict /prefeed known {
    statusdict exch /prefeed exch put
  } {
    pop
  } ifelse
} def

% Wrapped line markers
/wrapped_line_mark {	% x y charwith charheight type -> -
  /type exch def
  /h exch def
  /w exch def
  /y exch def
  /x exch def

  type 2 eq {
    % Black boxes (like TeX does)
    gsave
      0 setlinewidth
      x w 4 div add y M
      0 h rlineto w 2 div 0 rlineto 0 h neg rlineto
      closepath fill
    grestore
  } {
    type 3 eq {
      % Small arrows
      gsave
        .2 setlinewidth
        x w 2 div add y h 2 div add M
        w 4 div 0 rlineto
        x w 4 div add y lineto stroke

        x w 4 div add w 8 div add y h 4 div add M
        x w 4 div add y lineto
	w 4 div h 8 div rlineto stroke
      grestore
    } {
      % do nothing
    } ifelse
  } ifelse
} def

% EPSF import.

/BeginEPSF {
  /b4_Inc_state save def    		% Save state for cleanup
  /dict_count countdictstack def	% Count objects on dict stack
  /op_count count 1 sub def		% Count objects on operand stack
  userdict begin
  /showpage { } def
  0 setgray 0 setlinecap
  1 setlinewidth 0 setlinejoin
  10 setmiterlimit [ ] 0 setdash newpath
  /languagelevel where {
    pop languagelevel
    1 ne {
      false setstrokeadjust false setoverprint
    } if
  } if
} bind def

/EndEPSF {
  count op_count sub { pos } repeat	% Clean up stacks
  countdictstack dict_count sub { end } repeat
  b4_Inc_state restore
} bind def

% Check PostScript language level.
/languagelevel where {
  pop /gs_languagelevel languagelevel def
} {
  /gs_languagelevel 1 def
} ifelse
%%EndResource
%%BeginResource: procset Enscript-Encoding-88591 1.6 4
/encoding_vector [
/.notdef      	/.notdef      	/.notdef      	/.notdef      	
/.notdef      	/.notdef      	/.notdef      	/.notdef      	
/.notdef      	/.notdef      	/.notdef      	/.notdef      	
/.notdef      	/.notdef      	/.notdef      	/.notdef      	
/.notdef      	/.notdef      	/.notdef      	/.notdef      	
/.notdef      	/.notdef      	/.notdef      	/.notdef      	
/.notdef      	/.notdef      	/.notdef      	/.notdef      	
/.notdef      	/.notdef      	/.notdef      	/.notdef      	
/space        	/exclam       	/quotedbl     	/numbersign   	
/dollar       	/percent      	/ampersand    	/quoteright   	
/parenleft    	/parenright   	/asterisk     	/plus         	
/comma        	/hyphen       	/period       	/slash        	
/zero         	/one          	/two          	/three        	
/four         	/five         	/six          	/seven        	
/eight        	/nine         	/colon        	/semicolon    	
/less         	/equal        	/greater      	/question     	
/at           	/A            	/B            	/C            	
/D            	/E            	/F            	/G            	
/H            	/I            	/J            	/K            	
/L            	/M            	/N            	/O            	
/P            	/Q            	/R            	/S            	
/T            	/U            	/V            	/W            	
/X            	/Y            	/Z            	/bracketleft  	
/backslash    	/bracketright 	/asciicircum  	/underscore   	
/quoteleft    	/a            	/b            	/c            	
/d            	/e            	/f            	/g            	
/h            	/i            	/j            	/k            	
/l            	/m            	/n            	/o            	
/p            	/q            	/r            	/s            	
/t            	/u            	/v            	/w            	
/x            	/y            	/z            	/braceleft    	
/bar          	/braceright   	/tilde        	/.notdef      	
/.notdef      	/.notdef      	/.notdef      	/.notdef      	
/.notdef      	/.notdef      	/.notdef      	/.notdef      	
/.notdef      	/.notdef      	/.notdef      	/.notdef      	
/.notdef      	/.notdef      	/.notdef      	/.notdef      	
/.notdef      	/.notdef      	/.notdef      	/.notdef      	
/.notdef      	/.notdef      	/.notdef      	/.notdef      	
/.notdef      	/.notdef      	/.notdef      	/.notdef      	
/.notdef      	/.notdef      	/.notdef      	/.notdef      	
/space        	/exclamdown   	/cent         	/sterling     	
/currency     	/yen          	/brokenbar    	/section      	
/dieresis     	/copyright    	/ordfeminine  	/guillemotleft	
/logicalnot   	/hyphen       	/registered   	/macron       	
/degree       	/plusminus    	/twosuperior  	/threesuperior	
/acute        	/mu           	/paragraph    	/bullet       	
/cedilla      	/onesuperior  	/ordmasculine 	/guillemotright	
/onequarter   	/onehalf      	/threequarters	/questiondown 	
/Agrave       	/Aacute       	/Acircumflex  	/Atilde       	
/Adieresis    	/Aring        	/AE           	/Ccedilla     	
/Egrave       	/Eacute       	/Ecircumflex  	/Edieresis    	
/Igrave       	/Iacute       	/Icircumflex  	/Idieresis    	
/Eth          	/Ntilde       	/Ograve       	/Oacute       	
/Ocircumflex  	/Otilde       	/Odieresis    	/multiply     	
/Oslash       	/Ugrave       	/Uacute       	/Ucircumflex  	
/Udieresis    	/Yacute       	/Thorn        	/germandbls   	
/agrave       	/aacute       	/acircumflex  	/atilde       	
/adieresis    	/aring        	/ae           	/ccedilla     	
/egrave       	/eacute       	/ecircumflex  	/edieresis    	
/igrave       	/iacute       	/icircumflex  	/idieresis    	
/eth          	/ntilde       	/ograve       	/oacute       	
/ocircumflex  	/otilde       	/odieresis    	/divide       	
/oslash       	/ugrave       	/uacute       	/ucircumflex  	
/udieresis    	/yacute       	/thorn        	/ydieresis    	
] def
%%EndResource
%%EndProlog
%%BeginSetup
%%IncludeResource: font Courier-Bold
/HFpt_w 10 def
/HFpt_h 10 def
/Courier-Bold /HF-gs-font MF
/HF /HF-gs-font findfont [HFpt_w 0 0 HFpt_h 0 0] makefont def
/Courier-Bold /F-gs-font MF
/F-gs-font 11 11 SF
/#copies 1 def
% Pagedevice definitions:
gs_languagelevel 1 gt {
  <<
    /PageSize [612 792] 
  >> setpagedevice
} if
%%BeginResource: procset Enscript-Header-enscript-mycolor 1.6 4
%%IncludeResource: font Times-Bold
%%IncludeResource: font Times-Roman

% Fonts.
/Times-Bold /HeaderFont-Bold MF
/HeaderDateF /HeaderFont-Bold findfont 12 scalefont def

/Times-Roman /HeaderFont-Times MF
/HeaderHDRF /HeaderFont-Times findfont 14 scalefont def

/HeaderPageNumF /Helvetica-Bold findfont 28.8 scalefont def
/HeaderPageCountF /Helvetica-Bold findfont 18 scalefont def

/do_header {	% print enscript header
  gsave
    d_header_x d_header_y translate

    /dhw d_header_w 4 sub def

    /linecolor {0 0 0 setrgbcolor} bind def  % line color
    /txcolor   {0 0 0 setrgbcolor} bind def  % text color
    /fncolor   {0 0 0 setrgbcolor} bind def  % filename line color

    .5 setlinewidth

    % line across bottom of the header area
    linecolor
    0 0 moveto dhw 0 lineto

    % side boxes
    /sbw d_header_h 2 mul def	% side box width

    % left side box
    0 0 sbw d_header_h Box
    linecolor
    stroke

    % date/time in left box
    txcolor
    HeaderDateF setfont
    moddatestr dup stringwidth pop sbw exch sub 2 div
    d_header_h 2 div 2 add moveto show
    modtimestr dup stringwidth pop sbw exch sub 2 div
    d_header_h 5 div moveto show

    % right side box
    dhw sbw sub 0 sbw d_header_h Box
    linecolor
    stroke

    % get width of pagecount
    HeaderPageCountF setfont
    pagecountstr stringwidth pop

    txcolor
    HeaderPageNumF setfont
    pagenumstr stringwidth pop add  % add to width of pagecount
    sbw exch sub 2 div dhw sbw sub add
    d_header_h .2 mul moveto

    pagenumstr show

    HeaderPageCountF setfont
    pagecountstr show

    % filename
    fncolor
    HeaderHDRF setfont
    dhw fname stringwidth pop sub 2 div d_header_h 8 div moveto
    fname show

    % user supplied header string.
    user_header_p {
      /h d_header_h 8 div 5 mul def

      % HACK around a bug in enscript 1.6.0:
      % for some reason this is getting set to "(null)" and
      %
      user_header_center_str (\(null\)) eq {
        /user_header_center_str () def
      } if

      % Implement strict enscript compatibility.
      user_header_center_str () eq user_header_right_str () eq and {
        dhw user_header_left_str stringwidth pop sub 2 div
        h moveto user_header_left_str show
      } {
        sbw 5 add h moveto user_header_left_str show

        dhw user_header_center_str stringwidth pop sub 2 div
        h moveto user_header_center_str show

	dhw sbw sub 5 sub user_header_right_str stringwidth pop
	sub h moveto user_header_right_str show
      } ifelse
    } if

  grestore
} bind def
%%EndResource
/d_page_w 536 def
/d_page_h 744 def
/d_header_x 0 def
/d_header_y 708 def
/d_header_w 536 def
/d_header_h 36 def
/d_footer_x 0 def
/d_footer_y 0 def
/d_footer_w 536 def
/d_footer_h 0 def
/d_output_w 536 def
/d_output_h 708 def
/cols 1 def
%%EndSetup
%%Page: (1) 1
%%BeginPageSetup
_S
38 24 translate
/pagenum 1 def
/fname (pbitreecalc.perl) def
/fdir () def
/ftail (pbitreecalc.perl) def
% User defined strings:
/pagenumstr (1) def
/moddatestr (10/17/13) def
/pagecountstr (/3) def
/modtimestr (18:26:14) def
/user_header_p true def
/user_header_left_str ($cmps012b-wm/Assignments/.asg/asg3j-bitree-calc/misc/) def
/user_header_center_str () def
/user_header_right_str () def
/user_footer_p false def
%%EndPageSetup
column_borders
do_header
32.4 694 M (1:) s
52.2 694 M
(#!/usr/bin/perl -w) s
32.4 682 M (2:) s
52.2 682 M
(# $Id: pbitreecalc.perl,v 1.10 2013-10-17 18:26:14-07 - - $) s
32.4 670 M (3:) s
52.2 670 M
(#) s
32.4 658 M (4:) s
52.2 658 M
(# DESCRIPTION) s
32.4 646 M (5:) s
52.2 646 M
(#    See programming project specifications.) s
32.4 634 M (6:) s
52.2 634 M
(#) s
32.4 622 M (7:) s
32.4 610 M (8:) s
52.2 610 M
(use strict;) s
32.4 598 M (9:) s
52.2 598 M
(use warnings;) s
25.8 586 M (10:) s
52.2 586 M
(use Getopt::Std;) s
25.8 574 M (11:) s
25.8 562 M (12:) s
52.2 562 M
(my $exit_status = 0;) s
25.8 550 M (13:) s
52.2 550 M
(END {exit $exit_status}) s
25.8 538 M (14:) s
52.2 538 M
(sub note\(@\) { print STDERR "$0: @_"; };) s
25.8 526 M (15:) s
52.2 526 M
($SIG{'__WARN__'} = sub { note @_; $exit_status = 1; };) s
25.8 514 M (16:) s
52.2 514 M
($SIG{'__DIE__'} = sub { warn @_; exit; };) s
25.8 502 M (17:) s
25.8 490 M (18:) s
52.2 490 M
(my $NUMPAT = '[+-]?\(\\d+\\.?\\d*|\\.\\d+\)\([Ee][+-]?\\d+\)?';) s
25.8 478 M (19:) s
52.2 478 M
(my $VARPAT = '[a-z]';) s
25.8 466 M (20:) s
52.2 466 M
(my $INFINITY = 1000e1000;) s
25.8 454 M (21:) s
52.2 454 M
(my $NAN = - $INFINITY / $INFINITY;) s
25.8 442 M (22:) s
52.2 442 M
(my %values;) s
25.8 430 M (23:) s
52.2 430 M
(my %trees;) s
25.8 418 M (24:) s
25.8 406 M (25:) s
52.2 406 M
(my %options;) s
25.8 394 M (26:) s
52.2 394 M
(getopts \("eo:", \\%options\);) s
25.8 382 M (27:) s
52.2 382 M
(my $outfilename = $options{"o"};) s
25.8 370 M (28:) s
52.2 370 M
(open my $outfile, ">$outfilename" or die "$outfilename: $!\\n") s
25.8 358 M (29:) s
52.2 358 M
(     if defined $outfilename;) s
25.8 346 M (30:) s
52.2 346 M
($outfile = *STDOUT unless $outfile;;) s
25.8 334 M (31:) s
25.8 322 M (32:) s
52.2 322 M
(sub stringify \($\);) s
25.8 310 M (33:) s
52.2 310 M
(sub stringify \($\) {) s
25.8 298 M (34:) s
52.2 298 M
(   my \($tree\) = @_;) s
25.8 286 M (35:) s
52.2 286 M
(   if \($tree->{LEAF}\) {) s
25.8 274 M (36:) s
52.2 274 M
(      return $tree->{LEAF};) s
25.8 262 M (37:) s
52.2 262 M
(   }elsif \($tree->{OPER}\) {) s
25.8 250 M (38:) s
52.2 250 M
(      return "\(" . \(stringify $tree->{LEFT}\) . $tree->{OPER}) s
25.8 238 M (39:) s
52.2 238 M
(                 . \(stringify $tree->{RIGHT}\) . "\)";) s
25.8 226 M (40:) s
52.2 226 M
(   }else {) s
25.8 214 M (41:) s
52.2 214 M
(      return "null";) s
25.8 202 M (42:) s
52.2 202 M
(   }) s
25.8 190 M (43:) s
52.2 190 M
(}) s
25.8 178 M (44:) s
25.8 166 M (45:) s
52.2 166 M
(sub div \($$\) {) s
25.8 154 M (46:) s
52.2 154 M
(   my \($left, $right\) = @_;) s
25.8 142 M (47:) s
52.2 142 M
(   return $right != 0 ? eval {$left / $right}) s
25.8 130 M (48:) s
52.2 130 M
(        : $left > 0 ? $INFINITY) s
25.8 118 M (49:) s
52.2 118 M
(        : $left < 0 ? - $INFINITY) s
25.8 106 M (50:) s
52.2 106 M
(        : $NAN;) s
25.8 94 M (51:) s
52.2 94 M
(}) s
25.8 82 M (52:) s
_R
S
%%Page: (2) 2
%%BeginPageSetup
_S
38 24 translate
/pagenum 2 def
/fname (pbitreecalc.perl) def
/fdir () def
/ftail (pbitreecalc.perl) def
% User defined strings:
/pagenumstr (2) def
/moddatestr (10/17/13) def
/pagecountstr (/3) def
/modtimestr (18:26:14) def
/user_header_p true def
/user_header_left_str ($cmps012b-wm/Assignments/.asg/asg3j-bitree-calc/misc/) def
/user_header_center_str () def
/user_header_right_str () def
/user_footer_p false def
%%EndPageSetup
column_borders
do_header
25.8 694 M (53:) s
25.8 682 M (54:) s
52.2 682 M
(sub evaluate \($\);) s
25.8 670 M (55:) s
52.2 670 M
(sub evaluate \($\) {) s
25.8 658 M (56:) s
52.2 658 M
(   my \($tree\) = @_;) s
25.8 646 M (57:) s
52.2 646 M
(   if \($tree->{LEAF}\) {) s
25.8 634 M (58:) s
52.2 634 M
(      my $value = $values{$tree->{LEAF}};) s
25.8 622 M (59:) s
52.2 622 M
(      return defined $value ? $value : $NAN;) s
25.8 610 M (60:) s
52.2 610 M
(   }elsif \($tree->{OPER}\) {) s
25.8 598 M (61:) s
52.2 598 M
(      my $left = evaluate $tree->{LEFT};) s
25.8 586 M (62:) s
52.2 586 M
(      my $right = evaluate $tree->{RIGHT};) s
25.8 574 M (63:) s
52.2 574 M
(      my $oper = $tree->{OPER};) s
25.8 562 M (64:) s
52.2 562 M
(      $left =~ s/inf/1e1000000/;) s
25.8 550 M (65:) s
52.2 550 M
(      $right =~ s/inf/1e1000000/;) s
25.8 538 M (66:) s
52.2 538 M
(      return "nan" if $left =~ m/nan/i or $right =~ m/nan/i;) s
25.8 526 M (67:) s
52.2 526 M
(      my $result = $oper eq "/") s
25.8 514 M (68:) s
52.2 514 M
(           ? div $left, $right) s
25.8 502 M (69:) s
52.2 502 M
(           : eval "$left $oper $right";) s
25.8 490 M (70:) s
52.2 490 M
(      return $result;) s
25.8 478 M (71:) s
52.2 478 M
(   }else {) s
25.8 466 M (72:) s
52.2 466 M
(      return "null";) s
25.8 454 M (73:) s
52.2 454 M
(   }) s
25.8 442 M (74:) s
52.2 442 M
(}) s
25.8 430 M (75:) s
25.8 418 M (76:) s
52.2 418 M
(sub display \($\) {) s
25.8 406 M (77:) s
52.2 406 M
(   my \($var\) = @_;) s
25.8 394 M (78:) s
52.2 394 M
(   my $value = $values{$var};) s
25.8 382 M (79:) s
52.2 382 M
(   $value = $NAN unless defined $value;) s
25.8 370 M (80:) s
52.2 370 M
(   print $outfile "$var: $value\\n";) s
25.8 358 M (81:) s
52.2 358 M
(   my $tree = $trees{$var};) s
25.8 346 M (82:) s
52.2 346 M
(   print $outfile "   @{[stringify $tree]}\\n";) s
25.8 334 M (83:) s
52.2 334 M
(}) s
25.8 322 M (84:) s
25.8 310 M (85:) s
52.2 310 M
(sub syntax \($$\) {) s
25.8 298 M (86:) s
52.2 298 M
(   my \($filename, $linenr\) = @_;) s
25.8 286 M (87:) s
52.2 286 M
(   warn "$filename: $linenr: syntax error\\n";) s
25.8 274 M (88:) s
52.2 274 M
(}) s
25.8 262 M (89:) s
_R
S
%%Page: (3) 3
%%BeginPageSetup
_S
38 24 translate
/pagenum 3 def
/fname (pbitreecalc.perl) def
/fdir () def
/ftail (pbitreecalc.perl) def
% User defined strings:
/pagenumstr (3) def
/moddatestr (10/17/13) def
/pagecountstr (/3) def
/modtimestr (18:26:14) def
/user_header_p true def
/user_header_left_str ($cmps012b-wm/Assignments/.asg/asg3j-bitree-calc/misc/) def
/user_header_center_str () def
/user_header_right_str () def
/user_footer_p false def
%%EndPageSetup
column_borders
do_header
25.8 694 M (90:) s
25.8 682 M (91:) s
52.2 682 M
(push @ARGV, "-" unless @ARGV;) s
25.8 670 M (92:) s
52.2 670 M
(for my $filename \(@ARGV\) {) s
25.8 658 M (93:) s
52.2 658 M
(   open my $file, "<$filename" or warn "$filename: $!\\n" and next;) s
25.8 646 M (94:) s
52.2 646 M
(   LINE:) s
25.8 634 M (95:) s
52.2 634 M
(   while \(my $line = <$file>\) {) s
25.8 622 M (96:) s
52.2 622 M
(      chomp $line;) s
25.8 610 M (97:) s
52.2 610 M
(      print $outfile "**** $line\\n" if $options{"e"};) s
25.8 598 M (98:) s
52.2 598 M
(      $line =~ s/\\s+//g;) s
25.8 586 M (99:) s
52.2 586 M
(      $line =~ s/.*/lc $&/e;) s
19.2 574 M (100:) s
52.2 574 M
(      next if $line =~ m/^#/;) s
19.2 562 M (101:) s
52.2 562 M
(      if \($line =~ m/^\($VARPAT\):\($NUMPAT\)$/\) {) s
19.2 550 M (102:) s
52.2 550 M
(         my \($var, $value\) = \($1, $2\);) s
19.2 538 M (103:) s
52.2 538 M
(         $values{$var} = $value + 0;) s
19.2 526 M (104:) s
52.2 526 M
(         $trees{$var} = undef;) s
19.2 514 M (105:) s
52.2 514 M
(         display $var;) s
19.2 502 M (106:) s
52.2 502 M
(      }elsif \($line =~ m/^\($VARPAT\)\\?$/\) {) s
19.2 490 M (107:) s
52.2 490 M
(         my $var = $1;) s
19.2 478 M (108:) s
52.2 478 M
(         my $newvalue = evaluate $trees{$var};) s
19.2 466 M (109:) s
52.2 466 M
(         $values{$var} = $newvalue unless $newvalue eq "null";) s
19.2 454 M (110:) s
52.2 454 M
(         display $var;) s
19.2 442 M (111:) s
52.2 442 M
(      }elsif \($line =~ m/^\($VARPAT\)=\(.*\)/\) {) s
19.2 430 M (112:) s
52.2 430 M
(         my \($var, $rpn\) = \($1, $2\);) s
19.2 418 M (113:) s
52.2 418 M
(         my @stack;) s
19.2 406 M (114:) s
52.2 406 M
(         while \($rpn =~ s/^.//\) {) s
19.2 394 M (115:) s
52.2 394 M
(            my $char = $&;) s
19.2 382 M (116:) s
52.2 382 M
(            if \($char =~ m/$VARPAT/\) {) s
19.2 370 M (117:) s
52.2 370 M
(               push @stack, {LEAF=>$char};) s
19.2 358 M (118:) s
52.2 358 M
(            }elsif \($char =~ m/\\+|\\-|\\*|\\//\) {) s
19.2 346 M (119:) s
52.2 346 M
(               my $right = pop @stack;) s
19.2 334 M (120:) s
52.2 334 M
(               my $left = pop @stack;) s
19.2 322 M (121:) s
52.2 322 M
(               syntax $filename, $. and next LINE) s
19.2 310 M (122:) s
52.2 310 M
(                      unless $left and $right;) s
19.2 298 M (123:) s
52.2 298 M
(               push @stack, {OPER=>$char, LEFT=>$left, RIGHT=>$right};) s
19.2 286 M (124:) s
52.2 286 M
(            }else {) s
19.2 274 M (125:) s
52.2 274 M
(               syntax $filename, $.;) s
19.2 262 M (126:) s
52.2 262 M
(               next LINE;) s
19.2 250 M (127:) s
52.2 250 M
(            }) s
19.2 238 M (128:) s
52.2 238 M
(         }) s
19.2 226 M (129:) s
52.2 226 M
(         syntax $filename, $. and next unless @stack == 1;) s
19.2 214 M (130:) s
52.2 214 M
(         $values{$var} = evaluate \($trees{$var} = pop @stack\);) s
19.2 202 M (131:) s
52.2 202 M
(         display $var;) s
19.2 190 M (132:) s
52.2 190 M
(      }else {) s
19.2 178 M (133:) s
52.2 178 M
(         syntax $filename, $.;) s
19.2 166 M (134:) s
52.2 166 M
(      }) s
19.2 154 M (135:) s
52.2 154 M
(   }) s
19.2 142 M (136:) s
52.2 142 M
(   close $file;) s
19.2 130 M (137:) s
52.2 130 M
(}) s
19.2 118 M (138:) s
19.2 106 M (139:) s
52.2 106 M
(print $outfile "**** FINAL SYMBOL TABLE ****\\n";) s
19.2 94 M (140:) s
52.2 94 M
(for my $var \(sort keys %values\) {) s
19.2 82 M (141:) s
52.2 82 M
(   my $value = $values{$var};) s
19.2 70 M (142:) s
52.2 70 M
(   display $var if defined $value and $value !~ m/nan/i;) s
19.2 58 M (143:) s
52.2 58 M
(}) s
19.2 46 M (144:) s
19.2 34 M (145:) s
52.2 34 M
(close $outfile;) s
_R
S
%%Page: (1) 4
%%BeginPageSetup
_S
38 24 translate
/pagenum 1 def
/fname (printfile.java) def
/fdir () def
/ftail (printfile.java) def
% User defined strings:
/pagenumstr (1) def
/moddatestr (10/17/13) def
/pagecountstr (/1) def
/modtimestr (18:26:14) def
/user_header_p true def
/user_header_left_str ($cmps012b-wm/Assignments/.asg/asg3j-bitree-calc/misc/) def
/user_header_center_str () def
/user_header_right_str () def
/user_footer_p false def
%%EndPageSetup
column_borders
do_header
32.4 694 M (1:) s
52.2 694 M
(// $Id: printfile.java,v 1.1 2009-10-27 18:30:36-07 - - $) s
32.4 682 M (2:) s
32.4 670 M (3:) s
52.2 670 M
(//) s
32.4 658 M (4:) s
52.2 658 M
(// NAME) s
32.4 646 M (5:) s
52.2 646 M
(//    printfile - illustrate use of printfile and stdout) s
32.4 634 M (6:) s
52.2 634 M
(//) s
32.4 622 M (7:) s
52.2 622 M
(// SYNOPSIS) s
32.4 610 M (8:) s
52.2 610 M
(//    printfile filename words...) s
32.4 598 M (9:) s
52.2 598 M
(//) s
25.8 586 M (10:) s
52.2 586 M
(// DESCRIPTION) s
25.8 574 M (11:) s
52.2 574 M
(//    Writes the command line arguments to a file or to stdout.) s
25.8 562 M (12:) s
52.2 562 M
(//    If args[0] is "-", writes to stdout, else creates a file) s
25.8 550 M (13:) s
52.2 550 M
(//    and writes to it.) s
25.8 538 M (14:) s
52.2 538 M
(//) s
25.8 526 M (15:) s
25.8 514 M (16:) s
52.2 514 M
(import java.io.*;) s
25.8 502 M (17:) s
52.2 502 M
(import static java.lang.System.*;) s
25.8 490 M (18:) s
25.8 478 M (19:) s
52.2 478 M
(class printfile {) s
25.8 466 M (20:) s
52.2 466 M
(   static String progname = "printfile";) s
25.8 454 M (21:) s
25.8 442 M (22:) s
52.2 442 M
(   static void writefile \(PrintStream writer, String[] args\) {) s
25.8 430 M (23:) s
52.2 430 M
(      out.printf \("writefile:%s%n", args[0]\);) s
25.8 418 M (24:) s
52.2 418 M
(      for \(String arg: args\) writer.printf \("%s%n", arg\);) s
25.8 406 M (25:) s
52.2 406 M
(   }) s
25.8 394 M (26:) s
25.8 382 M (27:) s
52.2 382 M
(   public static void main \(String[] args\) {) s
25.8 370 M (28:) s
52.2 370 M
(      if \(args.length == 0 || args[0].equals \("-"\)\) {) s
25.8 358 M (29:) s
52.2 358 M
(         writefile \(new PrintStream \(out\), args\);) s
25.8 346 M (30:) s
52.2 346 M
(      }else {) s
25.8 334 M (31:) s
52.2 334 M
(         try {) s
25.8 322 M (32:) s
52.2 322 M
(            String filename = args[0];) s
25.8 310 M (33:) s
52.2 310 M
(            PrintStream writer = new PrintStream \(new File \(filename\)\);) s
25.8 298 M (34:) s
52.2 298 M
(            writefile \(writer, args\);) s
25.8 286 M (35:) s
52.2 286 M
(            writer.close \(\);) s
25.8 274 M (36:) s
52.2 274 M
(         }catch \(IOException error\) {) s
25.8 262 M (37:) s
52.2 262 M
(            err.printf \("%s: %s%n", progname, error.getMessage \(\)\);) s
25.8 250 M (38:) s
52.2 250 M
(            exit \(1\);) s
25.8 238 M (39:) s
52.2 238 M
(         }) s
25.8 226 M (40:) s
52.2 226 M
(      }) s
25.8 214 M (41:) s
52.2 214 M
(   }) s
25.8 202 M (42:) s
25.8 190 M (43:) s
52.2 190 M
(}) s
_R
S
%%Trailer
%%Pages: 4
%%DocumentNeededResources: font Times-Roman Courier-Bold Times-Bold 
%%EOF
